{
	"debug": "on",
	"attributes": [
		{
			"attibute_name": "datum",
			"display_name": "Datum",
        	"visible": "true",
			"index": "0"
		},
		{
			"attibute_name": "naam/omschrijving",
			"display_name": "Naam / Omschrijving",
        	"visible": "true",
			"index": "1"
		},
		{
			"attibute_name": "rekening",
			"display_name": "Rekening",
        	"visible": "true",
			"index": "2"
		},
		{
			"attibute_name": "tegenrekening",
			"display_name": "Tegenrekening",
    		"visible": "true",
			"index": "3"
		},
		{
			"attibute_name": "code",
			"display_name": "Code",
    		"visible": "true",
			"index": "4"
		},
		{
			"attibute_name": "afBij",
			"display_name": "Af Bij",
    		"visible": "true",
			"index": "5"
		},
		{
			"attibute_name": "bedragEUR",
			"display_name": "Bedrag (EUR)",
    		"visible": "true",
			"index": "6"
		},
		{
			"attibute_name": "mutatieSoort",
			"display_name": "MutatieSoort",
    		"visible": "true",
			"index": "7"
		},
		{
			"attibute_name": "mededelingen",
			"display_name": "Mededelingen",
    		"visible": "true",
			"index": "8"
		}
	]	
}